PM1 Chiemela Onuoha
…
Greece
6857.83
NA
T
CO2
2020
A
Manufacture of wood and of products of wood and cork, except furniture; manufacture of articles of straw and plaiting materials
RES
REPORTED

Preliminary EDA

# A tibble: 48 × 1
   `Reference area`                             
   <chr>                                        
 1 Greece                                       
 2 Belgium                                      
 3 Lithuania                                    
 4 European Union (27 countries from 01/02/2020)
 5 Croatia                                      
 6 Hungary                                      
 7 Bulgaria                                     
 8 Denmark                                      
 9 Portugal                                     
10 Finland                                      
# ℹ 38 more rows
…
